…
    ## New names:
    ## * `` -> ...2

``` r
precip2019 = mutate(precip2019, 
       year = 2019) %>% janitor::clean_names()

precipboth = bind_rows(precip2018, precip2019)[-c(1,14),]

rename(precipboth, month = precipitation_in, inches_precip = x2)
```

    ## # A tibble: 24 x 3
    ##    month inches_precip       year
    ##    <chr> <chr>              <dbl>
    ##  1 1     0.94                2018
    ##  2 2     4.8                 2018
    ##  3 3     2.69                2018
    ##  4 4     4.6900000000000004  2018
    ##  5 5     9.27                2018
    ##  6 6     4.7699999999999996  2018
    ##  7 7     10.199999999999999  2018
    ##  8 8     6.45                2018
    ##  9 9     10.47               2018
    ## 10 10    2.12                2018
    ## # … with 14 more rows
…
